{
  "stars": {
    "1": {
      "count": 1,
      "percent": 2
    },
    "2": {
      "count": 0,
      "percent": 0
    },
    "3": {
      "count": 0,
      "percent": 0
    },
    "4": {
      "count": 5,
      "percent": 15
    },
    "5": {
      "count": 29,
      "percent": 83
    }
  },
  "rating_average": 4.7000000000000002,
  "reviews_count": 35,
  "review_photo": {
    "total": 6,
    "total_photo": 10
  },
  "data": [
    {
      "id": 18030993,
      "title": "C\u1ef1c k\u00ec h\u00e0i l\u00f2ng",
      "content": "Qu\u1ea7n r\u1ea5t \u0111\u1eb9p nha. M\u00ecnh mua l\u00fac gi\u1ea3m gi\u00e1 c\u00f2n h\u01a1n 200k. R\u1ea5t \u0111\u00e1ng ti\u1ec1n",
      "status": "approved",
      "thank_count": 0,
      "score": 33.333333330000002,
      "new_score": 0.14977240999999999,
      "customer_id": 1423769,
      "comment_count": 0,
      "rating": 5,
      "images": [
        {
          "id": 3952404,
          "full_path": "https://salt.tikicdn.com/ts/review/ee/c7/66/1fa7eb61d5c32c9c88229ab3672c9704.jpg",
          "status": "approved"
        }
      ],
      "thanked": false,
      "created_at": 1666540468,
      "created_by": {
        "id": 1423769,
        "name": "Lien",
        "full_name": "Lien",
        "region": null,
        "avatar_url": "//tiki.vn/assets/img/avatar.png",
        "created_time": "2016-06-10 10:32:20",
        "group_id": 8,
        "purchased": true,
        "purchased_at": 1666260109,
        "contribute_info": {
          "id": 1423769,
          "name": "Lien",
          "avatar": "//tiki.vn/assets/img/avatar.png",
          "summary": {
            "joined_time": "\u0110\u00e3 tham gia 8 n\u0103m",
            "total_review": 136,
            "total_thank": 24
          }
        }
      },
      "suggestions": [],
      "attributes": [
        "Mua t\u1eeb nh\u00e0 b\u00e1n AAA Jeans",
        "M\u00e0u Baby Blue",
        "K\u00edch c\u1ee1 26"
      ],
      "product_attributes": ["M\u00e0u: Baby Blue", "K\u00edch c\u1ee1: 26"],
      "spid": 196958049,
      "is_photo": true,
      "seller": {
        "id": 539,
        "name": "AAA Jeans",
        "logo": "https://vcdn.tikicdn.com/ts/seller/8d/05/90/12b95e369f6be21bbe2bd0c0ba1afa02.png"
      },
      "product_id": 146957711,
      "timeline": {
        "review_created_date": "2022-10-23 22:54:28",
        "delivery_date": "2022-10-22 13:50:53",
        "current_date": "2024-09-23 11:06:43",
        "content": "\u0110\u00e3 d\u00f9ng 1 ng\u00e0y",
        "explain": "Khi vi\u1ebft \u0111\u00e1nh gi\u00e1, kh\u00e1ch h\u00e0ng \u0111\u00e3 d\u00f9ng s\u1ea3n ph\u1ea9m 1 ng\u00e0y."
      },
      "comments": [],
      "vote_attributes": {
        "agree": [],
        "disagree": []
      },
      "delivery_rating": []
    },
    {
      "id": 14001277,
      "title": "C\u1ef1c k\u00ec h\u00e0i l\u00f2ng",
      "content": "Nh\u1eadn \u0111\u01b0\u1ee3c h\u00e0ng nhanh, m\u00ecnh c\u00f3 m\u00e3 n\u00ean mua \u0111\u01b0\u1ee3c gi\u00e1 si\u00eau th\u00edch. H\u00ecnh \u1ea3nh \u0111\u1ec3 nh\u1eadn xu v\u00ec m\u00ecnh h\u01a1i l\u01b0\u1eddi ch\u1ee5p",
      "status": "approved",
      "thank_count": 0,
      "score": 33.333333330000002,
      "new_score": 0.14753556000000001,
      "customer_id": 8079494,
      "comment_count": 0,
      "rating": 5,
      "images": [
        {
          "id": 2927333,
          "full_path": "https://salt.tikicdn.com/ts/review/b4/a8/e7/afbbe96252b3c7a091e6e1cb29b64222.jpg",
          "status": "approved"
        }
      ],
      "thanked": false,
      "created_at": 1640167251,
      "created_by": {
        "id": 8079494,
        "name": "Luu Thanh Lan",
        "full_name": "Luu Thanh Lan",
        "region": null,
        "avatar_url": "https://s120.avatar.talk.zdn.vn/7/a/4/d/2/120/a8c4530a7d6e66acd4e8d83ded53418f.jpg",
        "created_time": "2018-09-22 16:59:22",
        "group_id": 8,
        "purchased": true,
        "purchased_at": 1639550743,
        "contribute_info": {
          "id": 8079494,
          "name": "Luu Thanh Lan",
          "avatar": "https://s120.avatar.talk.zdn.vn/7/a/4/d/2/120/a8c4530a7d6e66acd4e8d83ded53418f.jpg",
          "summary": {
            "joined_time": "\u0110\u00e3 tham gia 6 n\u0103m",
            "total_review": 12,
            "total_thank": 20
          }
        }
      },
      "suggestions": [],
      "attributes": [
        "Mua t\u1eeb nh\u00e0 b\u00e1n AAA Jeans",
        "M\u00e0u Silver Blue",
        "K\u00edch c\u1ee1 29"
      ],
      "product_attributes": ["M\u00e0u: Silver Blue", "K\u00edch c\u1ee1: 29"],
      "spid": 146957722,
      "is_photo": true,
      "seller": {
        "id": 539,
        "name": "AAA Jeans",
        "logo": "https://vcdn.tikicdn.com/ts/seller/8d/05/90/12b95e369f6be21bbe2bd0c0ba1afa02.png"
      },
      "product_id": 146957711,
      "timeline": {
        "review_created_date": "2021-12-22 17:00:51",
        "delivery_date": "2021-12-16 14:52:02",
        "current_date": "2024-09-23 11:06:43",
        "content": "\u0110\u00e3 d\u00f9ng 6 ng\u00e0y",
        "explain": "Khi vi\u1ebft \u0111\u00e1nh gi\u00e1, kh\u00e1ch h\u00e0ng \u0111\u00e3 d\u00f9ng s\u1ea3n ph\u1ea9m 6 ng\u00e0y."
      },
      "comments": [],
      "vote_attributes": {
        "agree": [],
        "disagree": []
      },
      "delivery_rating": []
    },
    {
      "id": 18429550,
      "title": "C\u1ef1c k\u00ec h\u00e0i l\u00f2ng",
      "content": "V\u1ea3i m\u1ec1m \u0111\u1eb9p, mua \u0111\u1ee7 c\u00e1c m\u00e0u",
      "status": "approved",
      "thank_count": 0,
      "score": 33.333333330000002,
      "new_score": 0.14753474999999999,
      "customer_id": 5086212,
      "comment_count": 0,
      "rating": 5,
      "images": [
        {
          "id": 4044723,
          "full_path": "https://salt.tikicdn.com/ts/review/a1/2e/90/6aa392bc4b1017b8060d681c7a692e40.jpg",
          "status": "approved"
        }
      ],
      "thanked": false,
      "created_at": 1671096880,
      "created_by": {
        "id": 5086212,
        "name": "Tu Thi Cam Truc",
        "full_name": "Tu Thi Cam Truc",
        "region": null,
        "avatar_url": "//tiki.vn/assets/img/avatar.png",
        "created_time": "2017-03-10 12:00:33",
        "group_id": 8,
        "purchased": true,
        "purchased_at": 1669353105,
        "contribute_info": {
          "id": 5086212,
          "name": "Tu Thi Cam Truc",
          "avatar": "//tiki.vn/assets/img/avatar.png",
          "summary": {
            "joined_time": "\u0110\u00e3 tham gia 8 n\u0103m",
            "total_review": 34,
            "total_thank": 5
          }
        }
      },
      "suggestions": [],
      "attributes": [
        "Mua t\u1eeb nh\u00e0 b\u00e1n AAA Jeans",
        "M\u00e0u Alice Blue",
        "K\u00edch c\u1ee1 29"
      ],
      "product_attributes": ["M\u00e0u: Alice Blue", "K\u00edch c\u1ee1: 29"],
      "spid": 199678878,
      "is_photo": true,
      "seller": {
        "id": 539,
        "name": "AAA Jeans",
        "logo": "https://vcdn.tikicdn.com/ts/seller/8d/05/90/12b95e369f6be21bbe2bd0c0ba1afa02.png"
      },
      "product_id": 146957711,
      "timeline": {
        "review_created_date": "2022-12-15 16:34:40",
        "delivery_date": "2022-11-26 08:35:21",
        "current_date": "2024-09-23 11:06:43",
        "content": "\u0110\u00e3 d\u00f9ng 1 th\u00e1ng",
        "explain": "Khi vi\u1ebft \u0111\u00e1nh gi\u00e1, kh\u00e1ch h\u00e0ng \u0111\u00e3 d\u00f9ng s\u1ea3n ph\u1ea9m 1 th\u00e1ng."
      },
      "comments": [],
      "vote_attributes": {
        "agree": [
          "\u0110\u1eb9p",
          "\u0111\u01b0\u1eddng may ch\u1eafc ch\u1eafn",
          "kh\u1ea3 n\u0103ng co gi\u00e3n t\u1ed1t",
          "V\u1ea3i m\u1ec1m"
        ],
        "disagree": []
      },
      "delivery_rating": []
    },
    {
      "id": 18939978,
      "title": "C\u1ef1c k\u00ec h\u00e0i l\u00f2ng",
      "content": "\u0110\u1eb9p l\u1eafm s\u1ed1p",
      "status": "approved",
      "thank_count": 0,
      "score": 33.333333330000002,
      "new_score": 0.14769857,
      "customer_id": 16657772,
      "comment_count": 0,
      "rating": 5,
      "images": [
        {
          "id": 4150477,
          "full_path": "https://salt.tikicdn.com/ts/review/5e/d8/ca/10f4ee28cf1851e9ad1883a4401c5452.jpg",
          "status": "approved"
        }
      ],
      "thanked": false,
      "created_at": 1678501166,
      "created_by": {
        "id": 16657772,
        "name": "Kien Phan",
        "full_name": "Kien Phan",
        "region": null,
        "avatar_url": "https://platform-lookaside.fbsbx.com/platform/profilepic/?asid=133026561563965&height=200&width=200&ext=1585768387&hash=AeQJBW3TklOdwYDg",
        "created_time": "2020-03-03 02:13:26",
        "group_id": 8,
        "purchased": true,
        "purchased_at": 1677649767,
        "contribute_info": {
          "id": 16657772,
          "name": "Kien Phan",
          "avatar": "https://platform-lookaside.fbsbx.com/platform/profilepic/?asid=133026561563965&height=200&width=200&ext=1585768387&hash=AeQJBW3TklOdwYDg",
          "summary": {
            "joined_time": "\u0110\u00e3 tham gia 5 n\u0103m",
            "total_review": 42,
            "total_thank": 2
          }
        }
      },
      "suggestions": [],
      "attributes": [
        "Mua t\u1eeb nh\u00e0 b\u00e1n AAA Jeans",
        "M\u00e0u Alice Blue",
        "K\u00edch c\u1ee1 28"
      ],
      "product_attributes": ["M\u00e0u: Alice Blue", "K\u00edch c\u1ee1: 28"],
      "spid": 199678879,
      "is_photo": true,
      "seller": {
        "id": 539,
        "name": "AAA Jeans",
        "logo": "8d/05/90/e3a5a6a97a3f5cce051cbf7d6c9e325f.png"
      },
      "product_id": 146957711,
      "timeline": {
        "review_created_date": "2023-03-11 09:19:26",
        "delivery_date": "2023-03-02 10:15:41",
        "current_date": "2024-09-23 11:06:43",
        "content": "\u0110\u00e3 d\u00f9ng 9 ng\u00e0y",
        "explain": "Khi vi\u1ebft \u0111\u00e1nh gi\u00e1, kh\u00e1ch h\u00e0ng \u0111\u00e3 d\u00f9ng s\u1ea3n ph\u1ea9m 9 ng\u00e0y."
      },
      "comments": [],
      "vote_attributes": {
        "agree": [
          "\u0110\u1eb9p",
          "\u0111\u01b0\u1eddng may ch\u1eafc ch\u1eafn",
          "kh\u1ea3 n\u0103ng co gi\u00e3n t\u1ed1t",
          "V\u1ea3i m\u1ec1m"
        ],
        "disagree": []
      },
      "delivery_rating": []
    },
    {
      "id": 18267418,
      "title": "C\u1ef1c k\u00ec h\u00e0i l\u00f2ng",
      "content": "V\u1ea3i m\u1ec1m d\u00e0y v\u1eeba chu\u1ea9n size",
      "status": "approved",
      "thank_count": 0,
      "score": 33.333333330000002,
      "new_score": 0.14686067999999999,
      "customer_id": 5086212,
      "comment_count": 0,
      "rating": 5,
      "images": [
        {
          "id": 4007572,
          "full_path": "https://salt.tikicdn.com/ts/review/d7/52/35/212675bd9eab97fdd42beae206a8755c.jpg",
          "status": "approved"
        }
      ],
      "thanked": false,
      "created_at": 1669167962,
      "created_by": {
        "id": 5086212,
        "name": "Tu Thi Cam Truc",
        "full_name": "Tu Thi Cam Truc",
        "region": null,
        "avatar_url": "//tiki.vn/assets/img/avatar.png",
        "created_time": "2017-03-10 12:00:33",
        "group_id": 8,
        "purchased": true,
        "purchased_at": 1668988627,
        "contribute_info": {
          "id": 5086212,
          "name": "Tu Thi Cam Truc",
          "avatar": "//tiki.vn/assets/img/avatar.png",
          "summary": {
            "joined_time": "\u0110\u00e3 tham gia 8 n\u0103m",
            "total_review": 34,
            "total_thank": 5
          }
        }
      },
      "suggestions": [],
      "attributes": [
        "Mua t\u1eeb nh\u00e0 b\u00e1n AAA Jeans",
        "M\u00e0u Indigo",
        "K\u00edch c\u1ee1 29"
      ],
      "product_attributes": ["M\u00e0u: Indigo", "K\u00edch c\u1ee1: 29"],
      "spid": 146957762,
      "is_photo": true,
      "seller": {
        "id": 539,
        "name": "AAA Jeans",
        "logo": "8d/05/90/12b95e369f6be21bbe2bd0c0ba1afa02.png"
      },
      "product_id": 146957711,
      "timeline": {
        "review_created_date": "2022-11-23 08:46:02",
        "delivery_date": "2022-11-22 08:31:03",
        "current_date": "2024-09-23 11:06:43",
        "content": "\u0110\u00e3 d\u00f9ng 1 ng\u00e0y",
        "explain": "Khi vi\u1ebft \u0111\u00e1nh gi\u00e1, kh\u00e1ch h\u00e0ng \u0111\u00e3 d\u00f9ng s\u1ea3n ph\u1ea9m 1 ng\u00e0y."
      },
      "comments": [],
      "vote_attributes": {
        "agree": [],
        "disagree": []
      },
      "delivery_rating": []
    }
  ],
  "paging": {
    "total": 35,
    "per_page": 5,
    "current_page": 1,
    "last_page": 7,
    "from": 1,
    "to": 5
  }
}
